…
```r
# SP500 içindeki hisse fiyatları
tq_index("SP500") %>%
    slice(1:3) %>% # sadece ilk 3 hisse
    tq_get(get = "stock.prices")
```

```
## Getting holdings for SP500
```

```
## # A tibble: 7,926 × 15
##    symbol company   identifier sedol   weight sector shares_held local_currency
##    <chr>  <chr>     <chr>      <chr>    <dbl> <chr>        <dbl> <chr>         
##  1 AAPL   APPLE INC 037833100  2046251 0.0761 -        168174171 USD           
##  2 AAPL   APPLE INC 037833100  2046251 0.0761 -        168174171 USD           
##  3 AAPL   APPLE INC 037833100  2046251 0.0761 -        168174171 USD           
##  4 AAPL   APPLE INC 037833100  2046251 0.0761 -        168174171 USD           
##  5 AAPL   APPLE INC 037833100  2046251 0.0761 -        168174171 USD           
##  6 AAPL   APPLE INC 037833100  2046251 0.0761 -        168174171 USD           
##  7 AAPL   APPLE INC 037833100  2046251 0.0761 -        168174171 USD           
##  8 AAPL   APPLE INC 037833100  2046251 0.0761 -        168174171 USD           
##  9 AAPL   APPLE INC 037833100  2046251 0.0761 -        168174171 USD           
## 10 AAPL   APPLE INC 037833100  2046251 0.0761 -        168174171 USD           
## # ℹ 7,916 more rows
## # ℹ 7 more variables: date <date>, open <dbl>, high <dbl>, low <dbl>,
## #   close <dbl>, volume <dbl>, adjusted <dbl>
```
…
